{
  "project_info": {
    "project_number": "82983766005",
    "firebase_url": "https://myfirstmessenger20.firebaseio.com",
    "project_id": "myfirstmessenger20",
    "storage_bucket": "myfirstmessenger20.appspot.com"
  },
  "client": [
    {
      "client_info": {
        "mobilesdk_app_id": "1:82983766005:android:672ff01dd1cf56040242bc",
        "android_client_info": {
          "package_name": "com.example.myfirstmessenger20"
        }
      },
      "oauth_client": [
        {
          "client_id": "82983766005-kogm9cpev418v61dh64gu7voo525ur65.apps.googleusercontent.com",
          "client_type": 1,
          "android_info": {
            "package_name": "com.example.myfirstmessenger20",
            "certificate_hash": "126c8ecbed1437236ffbb369ac8886def2c3812d"
          }
        },
        {
          "client_id": "82983766005-4q7pq18ldghnk5l10kgc8a8qdt5ua03h.apps.googleusercontent.com",
          "client_type": 3
        }
      ],
      "api_key": [
        {
          "current_key": "AIzaSyACRLebWbpE4oEMMkgDeaM41m6ot0RSv7w"
        }
      ],
      "services": {
        "appinvite_service": {
          "other_platform_oauth_client": [
            {
              "client_id": "82983766005-4q7pq18ldghnk5l10kgc8a8qdt5ua03h.apps.googleusercontent.com",
              "client_type": 3
            }
          ]
        }
      }
    }
  ],
  "configuration_version": "1"
}